  Os
  PADE
  rel
  30.0     10.0 80.0   rmax,aa,bb 
  2.5d0   5.0d0	       rcov,rprb
    12   11	       number of core and valence orbitals
    6    0     2.00      0.00		   
    7    0     0.00      0.00		   
    8    0     0.00      0.00		   
    6    1     0.00      0.00		   
    7    1     0.00      0.00		   
    8    1     0.00      0.00		   
    5    2     6.00      0.00		   
    6    2     0.00      0.00		   
    7    2     0.00      0.00		   
    5    3     0.00      0.00		   
    6    3     0.00      0.00		   

